‘R de trás pra frente’
…
---

## Exemplo 1

- A altura está em **cm**, eu quero a altura em **metros**.
- Ele vai calcular para cada um, o resultado correspondente. 

```r
ebola %>% 
  select( ht_cm) %>% 
  mutate(ht_m=ht_cm/100)
```

```
## # A tibble: 5,888 x 2
##    ht_cm  ht_m
##    <dbl> <dbl>
##  1    48  0.48
##  2    59  0.59
##  3   238  2.38
##  4   135  1.35
##  5    71  0.71
##  6   116  1.16
##  7    87  0.87
##  8    11  0.11
##  9   226  2.26
## 10   174  1.74
## # … with 5,878 more rows
```
---

## Exemplo 2

- Eu queria a altura em metros para calcular o IMC, posso continuar o cálculo com a nova variável. 

```r
ebola %>% 
  select(wt_kg, ht_cm) %>% 
  mutate(ht_m=ht_cm/100,
         imc=wt_kg/ht_m^2)
```

```
## # A tibble: 5,888 x 4
##    wt_kg ht_cm  ht_m   imc
##    <dbl> <dbl> <dbl> <dbl>
##  1    27    48  0.48 117. 
##  2    25    59  0.59  71.8
##  3    91   238  2.38  16.1
##  4    41   135  1.35  22.5
##  5    36    71  0.71  71.4
##  6    56   116  1.16  41.6
##  7    47    87  0.87  62.1
##  8     0    11  0.11   0  
##  9    86   226  2.26  16.8
## 10    69   174  1.74  22.8
## # … with 5,878 more rows
```
…
## Exemplo 3

- Fazer o cálculo com os valores de uma coluna só.

- O que acontece?

```r
ebola %>% 
  filter(!is.na(age)) %>% 
  select(age) %>% 
  mutate(idade_media=mean(age)) # ou na.rm=T 
```

```
## # A tibble: 5,802 x 2
##      age idade_media
##    <dbl>       <dbl>
##  1     2        16.1
##  2     3        16.1
##  3    56        16.1
##  4    18        16.1
##  5     3        16.1
##  6    16        16.1
##  7    16        16.1
##  8     0        16.1
##  9    61        16.1
## 10    27        16.1
## # … with 5,792 more rows
```
…
### Agrupar: group_by():

- Uai... ele não fez nada?

```r
ebola %>% 
  filter(!is.na(age)) %>% 
  select(gender, age) %>% 
  group_by(gender) 
```

```
## # A tibble: 5,802 x 2
## # Groups:   gender [3]
##    gender   age
##    <chr>  <dbl>
##  1 m          2
##  2 f          3
##  3 m         56
##  4 f         18
##  5 m          3
##  6 f         16
##  7 f         16
##  8 f          0
##  9 m         61
## 10 f         27
## # … with 5,792 more rows
```

---

### Agrupar + alguma conta!

```r
ebola %>% 
  filter(!is.na(age)) %>% 
  select(gender, age) %>% 
  group_by(gender) %>% 
  mutate(idade_media=mean(age))
```

```
## # A tibble: 5,802 x 3
## # Groups:   gender [3]
##    gender   age idade_media
##    <chr>  <dbl>       <dbl>
##  1 m          2        19.6
##  2 f          3        12.7
##  3 m         56        19.6
##  4 f         18        12.7
##  5 m          3        19.6
##  6 f         16        12.7
##  7 f         16        12.7
##  8 f          0        12.7
##  9 m         61        19.6
## 10 f         27        12.7
## # … with 5,792 more rows
```
…
