‘R de trás pra frente’
…
#OU

select(meus_dados, col1, col3, col95)
```

<center><img src="img/select2.png" height=240px" /></center>
---
## Exemplo

```r
ebola %>% select(date_onset, gender, age)
```

```
## # A tibble: 5,888 × 3
##    date_onset gender   age
##    <date>     <chr>  <dbl>
##  1 2014-05-13 m          2
##  2 2014-05-13 f          3
##  3 2014-05-16 m         56
##  4 2014-05-18 f         18
##  5 2014-05-21 m          3
##  6 2014-05-22 f         16
##  7 2014-05-27 f         16
##  8 2014-06-02 f          0
##  9 2014-06-05 m         61
## 10 2014-06-05 f         27
## # … with 5,878 more rows
```
…
###**Selecionar reordenando**

```r
meus_dados %>% select( co5, col1, col3, col33, col2)
```

---
## Exemplo

```r
ebola %>% select( gender, outcome,case_id, date_onset)
```

```
## # A tibble: 5,888 × 4
##    gender outcome case_id date_onset
##    <chr>  <chr>   <chr>   <date>    
##  1 m      <NA>    5fe599  2014-05-13
##  2 f      Recover 8689b7  2014-05-13
##  3 m      Recover 11f8ea  2014-05-16
##  4 f      <NA>    b8812a  2014-05-18
##  5 m      Recover 893f25  2014-05-21
##  6 f      Recover be99c8  2014-05-22
##  7 f      Recover 07e3e8  2014-05-27
##  8 f      Death   369449  2014-06-02
##  9 m      Recover f393b4  2014-06-05
## 10 f      Death   1389ca  2014-06-05
## # … with 5,878 more rows
```
…
```r
ebola %>% select( -case_id)
```

```
## # A tibble: 5,888 × 29
##    generation date_infection date_onset date_hospitalisati… date_outcome outcome
##         <dbl> <date>         <date>     <date>              <date>       <chr>  
##  1          4 2014-05-08     2014-05-13 2014-05-15          NA           <NA>   
##  2          4 NA             2014-05-13 2014-05-14          2014-05-18   Recover
##  3          2 NA             2014-05-16 2014-05-18          2014-05-30   Recover
##  4          3 2014-05-04     2014-05-18 2014-05-20          NA           <NA>   
##  5          3 2014-05-18     2014-05-21 2014-05-22          2014-05-29   Recover
##  6          3 2014-05-03     2014-05-22 2014-05-23          2014-05-24   Recover
##  7          4 2014-05-22     2014-05-27 2014-05-29          2014-06-01   Recover
##  8          4 2014-05-28     2014-06-02 2014-06-03          2014-06-07   Death  
##  9          4 NA             2014-06-05 2014-06-06          2014-06-18   Recover
## 10          4 NA             2014-06-05 2014-06-07          2014-06-09   Death  
## # … with 5,878 more rows, and 23 more variables: gender <chr>, age <dbl>,
## #   age_unit <chr>, age_years <dbl>, age_cat <fct>, age_cat5 <fct>,
## #   hospital <chr>, lon <dbl>, lat <dbl>, infector <chr>, source <chr>,
## #   wt_kg <dbl>, ht_cm <dbl>, ct_blood <dbl>, fever <chr>, chills <chr>,
## #   cough <chr>, aches <chr>, vomit <chr>, temp <dbl>, time_admission <chr>,
## #   bmi <dbl>, days_onset_hosp <dbl>
```
…
```r
meus_dados %>% select( contains("algum_padrao"))

meus_dados %>% select( where(is.numeric))
```

---
## Exemplo

```r
ebola %>% select( contains("date"))
```

```
## # A tibble: 5,888 × 4
##    date_infection date_onset date_hospitalisation date_outcome
##    <date>         <date>     <date>               <date>      
##  1 2014-05-08     2014-05-13 2014-05-15           NA          
##  2 NA             2014-05-13 2014-05-14           2014-05-18  
##  3 NA             2014-05-16 2014-05-18           2014-05-30  
##  4 2014-05-04     2014-05-18 2014-05-20           NA          
##  5 2014-05-18     2014-05-21 2014-05-22           2014-05-29  
##  6 2014-05-03     2014-05-22 2014-05-23           2014-05-24  
##  7 2014-05-22     2014-05-27 2014-05-29           2014-06-01  
##  8 2014-05-28     2014-06-02 2014-06-03           2014-06-07  
##  9 NA             2014-06-05 2014-06-06           2014-06-18  
## 10 NA             2014-06-05 2014-06-07           2014-06-09  
## # … with 5,878 more rows
```
…
---
## Ordenando a base

```r
arrange(ebola , generation)
```

```
## # A tibble: 5,888 × 30
##    case_id generation date_infection date_onset date_hospitalisati… date_outcome
##    <chr>        <dbl> <date>         <date>     <date>              <date>      
##  1 d1fafd           0 NA             2014-04-07 2014-04-17          2014-04-19  
##  2 49731d           0 2014-03-19     2014-04-25 2014-05-02          2014-05-07  
##  3 53371b           1 2014-04-09     2014-04-15 2014-04-20          NA          
##  4 f5c3d8           1 2014-04-18     2014-04-21 2014-04-25          2014-04-30  
##  5 11f8ea           2 NA             2014-05-16 2014-05-18          2014-05-30  
##  6 6c286a           2 NA             2014-04-27 2014-04-27          2014-05-07  
##  7 e66fa4           2 NA             2014-04-21 2014-05-06          2014-05-12  
##  8 0f58c4           2 2014-04-22     2014-04-26 2014-04-29          2014-05-17  
##  9 d58402           2 2014-04-23     2014-05-01 2014-05-10          2014-05-11  
## 10 76b97a           2 2014-05-11     2014-05-16 2014-05-25          2014-06-17  
## # … with 5,878 more rows, and 24 more variables: outcome <chr>, gender <chr>,
## #   age <dbl>, age_unit <chr>, age_years <dbl>, age_cat <fct>, age_cat5 <fct>,
## #   hospital <chr>, lon <dbl>, lat <dbl>, infector <chr>, source <chr>,
## #   wt_kg <dbl>, ht_cm <dbl>, ct_blood <dbl>, fever <chr>, chills <chr>,
## #   cough <chr>, aches <chr>, vomit <chr>, temp <dbl>, time_admission <chr>,
## #   bmi <dbl>, days_onset_hosp <dbl>
```
…
